Data Visulization
…
Clean up the data

delta_visits <- delta_visits_raw %>%
    clean_names()
delta_visits

# A tibble: 55 × 13
   eco_restore_approximate_loc…¹ reach latitude longitude date       time_of_day
   <chr>                         <chr>    <dbl>     <dbl> <date>     <chr>      
 1 Decker Island                 Bran…     38.1     -122. 2017-07-07 unknown    
 2 Decker Island                 Deck…     38.1     -122. 2017-07-07 unknown    
 3 Decker Island                 Deck…     38.1     -122. 2017-07-07 unknown    
 4 Decker Island                 Deck…     38.1     -122. 2017-09-13 unknown    
 5 Decker Island                 Bran…     38.1     -122. 2017-11-07 unknown    
 6 Decker Island                 Deck…     38.1     -122. 2017-11-07 unknown    
 7 Decker Island                 Deck…     38.1     -122. 2017-11-07 unknown    
 8 Decker Island                 Bran…     38.1     -122. 2017-12-08 morning    
 9 Decker Island                 Deck…     38.1     -122. 2017-12-08 morning    
10 Decker Island                 Deck…     38.1     -122. 2017-12-08 morning    
# ℹ 45 more rows
# ℹ abbreviated name: ¹​eco_restore_approximate_location
# ℹ 7 more variables: sm_boat <dbl>, med_boat <dbl>, lrg_boat <dbl>,
#   bank_angler <dbl>, scientist <dbl>, cars <dbl>, notes <chr>
…
